{
"Email" : "abc@gmail.com",
"First_Name" : "Subhash",
"Last_Name" : "Nikhil",
"Mob_Number" : 9876543210,
"City" : "Hyderabad",
"Country" : "India",
"Qualification" : "BTech",
"Webinar_details" : "Higher Studies",
"Registration_ID" : 101
}